module bitbucket.org/belazar13/subscriber

go 1.12

require (
	github.com/coreos/go-systemd v0.0.0-20190719114852-fd7a80b32e1f // indirect
	github.com/jackc/pgx/v4 v4.4.1
	github.com/konsorten/go-windows-terminal-sequences v1.0.2 // indirect
	github.com/kr/pty v1.1.8 // indirect
	github.com/pkg/errors v0.9.1
	github.com/stretchr/objx v0.2.0 // indirect
	golang.org/x/net v0.0.0-20190813141303-74dc4d7220e7 // indirect
	golang.org/x/tools v0.0.0-20190823170909-c4a336ef6a2f // indirect
)
